PISA 2022 science and mathematics scores
…
PISA 2022 science and mathematics scores

    Author

             Richard Brock 

Patterns of science and mathematics achievement

Correlation between mathematics and science scores in PISA 2022 data

# A tibble: 613,744 × 1,279
   CNT     CNTRYID CNTSCHID CNTSTUID CYC   NatCen  STRATUM SUBNATIO REGION OECD 
   <fct>   <fct>      <dbl>    <dbl> <chr> <fct>   <fct>   <fct>    <fct>  <fct>
 1 Albania Albania   800282   800001 08MS  Albania ALB - … Albania  Alban… No   
 2 Albania Albania   800115   800002 08MS  Albania ALB - … Albania  Alban… No   
 3 Albania Albania   800242   800003 08MS  Albania ALB - … Albania  Alban… No   
 4 Albania Albania   800245   800005 08MS  Albania ALB - … Albania  Alban… No   
 5 Albania Albania   800285   800006 08MS  Albania ALB - … Albania  Alban… No   
 6 Albania Albania   800172   800007 08MS  Albania ALB - … Albania  Alban… No   
 7 Albania Albania   800082   800008 08MS  Albania ALB - … Albania  Alban… No   
 8 Albania Albania   800274   800009 08MS  Albania ALB - … Albania  Alban… No   
 9 Albania Albania   800057   800010 08MS  Albania ALB - … Albania  Alban… No   
10 Albania Albania   800132   800012 08MS  Albania ALB - … Albania  Alban… No   
# ℹ 613,734 more rows
# ℹ 1,269 more variables: ADMINMODE <fct>, LANGTEST_QQQ <fct>,
#   LANGTEST_COG <fct>, LANGTEST_PAQ <fct>, Option_CT <fct>, Option_FL <fct>,
#   Option_ICTQ <fct>, Option_WBQ <fct>, Option_PQ <fct>, Option_TQ <fct>,
#   Option_UH <fct>, BOOKID <fct>, ST001D01T <fct>, ST003D02T <fct>,
#   ST003D03T <fct>, ST004D01T <fct>, ST250Q01JA <fct>, ST250Q02JA <fct>,
#   ST250Q03JA <fct>, ST250Q04JA <fct>, ST250Q05JA <fct>, ST250D06JA <fct>, …
…
